939078 982617 507
58609 911262 525
191747 103430 383
797836 15966 509
977166 499943 525
508294 468008 426
877796 122828 525
599919 160773 470
388063 639024 509
375555 985050 525
333205 377146 441
231731 659208 509
517032 234063 470
561243 48329 470
646941 61302 509
102808 415016 449
650016 757359 504
808659 301877 509
713647 338025 509
337954 649831 509
460260 739283 509
595672 560723 434
593326 920466 525
718245 641613 504
25898 858740 525
984522 426591 525
310933 122990 443
815935 912526 525
138491 527071 470
572753 630534 509
465767 627899 509
523282 11915 470
596613 647327 509
336259 176185 443
29289 68146 340
132136 133068 331
990452 740847 525
910562 827989 525
979810 687547 525
824568 19044 509
325043 215324 443
368777 481557 449
342288 472695 449
418021 491519 444
359189 252 443
114969 712749 509
113659 79684 354
65504 217845 386
395264 221584 443
521465 583940 452
340222 34103 443
227566 590708 470
565479 824451 509
481282 846862 525
964760 996215 458
957993 90755 525
724927 218086 509
696160 315700 509
568876 276459 470
584725 765108 509
540578 926644 525
667455 823358 504
463334 817016 509
37778 179661 383
634212 261450 509
424271 750251 509
695340 347312 509
975764 316407 525
740970 361585 509
678023 689506 398
988567 898807 507
889615 83590 525
653944 329114 509
23305 259361 443
107124 778693 509
252590 489990 449
49811 469848 449
145302 944982 525
156745 198216 370
749689 917496 525
992837 593508 525
213823 451946 449
299731 372607 441
796117 62558 509
664077 499963 509
187201 46551 383
591723 332521 470
315931 811051 509
426769 55966 449
363821 552596 470
274661 272205 358
687511 327191 509
638851 542360 509
598180 196470 470
618296 978515 525
948390 847810 507
818841 288196 509
691720 954301 525
840630 206825 525
751177 38212 509
786246 123788 509
971598 426328 525
665311 72113 509
700017 667374 442
406177 291105 441
339693 604840 470
914581 889989 476
548604 516994 452
290724 205106 443
622436 696956 509
531663 178793 470
405698 273810 441
995582 877817 507
38537 690049 509
151159 805948 509
512188 634731 509
238074 551851 470
287611 962244 525
713693 40594 509
583131 399204 470
227229 700404 509
917804 179555 525
909173 210203 525
290156 868504 525
865488 299639 525
575082 713207 509
277251 844771 525
226568 954319 525
87656 637863 509
588447 588942 315
821463 750139 468
422715 17360 449
332987 69200 443
966614 118444 525
702782 247029 509
775508 463895 509
449238 857484 525
659849 514864 509
742837 868591 525
251771 846514 525
59605 758192 509
420436 230578 449
81211 461428 449
241281 869940 525
190649 311097 443
36342 729152 509
938333 565189 525
887295 81508 525
247613 414129 449
180340 463041 449
112521 387793 443
625096 933461 525
54088 577735 470
452201 31762 449
556322 971767 525
540846 981794 525
881619 342485 525
638999 413389 509
81295 49312 351
439063 55488 449
570102 558189 421
654466 771052 504
226426 646340 509
501 226394 386
767537 141529 509
797047 120636 509
870853 688885 525
893674 831614 525
603327 1810 470
607185 59419 470
930098 761782 525
614521 953793 525
686570 576444 509
648078 698147 442
192864 735056 509
703858 644002 442
311171 846023 525
955504 230479 525
965803 815804 525
555157 336786 470
250531 503813 449
942523 3802 525
787530 187598 509
573798 302154 470
433014 147555 449
934131 14877 525
88162 172247 383
758826 456720 509
424181 146626 449
443599 80362 449
428157 243132 449
745900 351276 509
393094 251422 441
257865 99418 443
846991 178223 525
105910 374220 443
714580 15178 509
135949 502487 449
496366 4480 449
944972 684214 525
859801 913151 476
669574 998375 525
489160 552141 470
603611 363440 470
96478 822031 509
168474 308342 443
200170 955539 525
207262 689141 509
82312 397784 443
105275 160761 383
707020 742096 424
173167 349175 443
664026 949939 525
512287 351275 470
242113 428845 449
928541 193586 525
552231 171044 470
156398 274393 443
814334 415674 509
916659 831318 525
889760 238290 525
743482 419751 509
348607 860106 525
819044 367658 509
1357 215410 383
364728 564631 470
949325 214511 525
231234 832365 509
253079 331582 407
552087 139102 470
229140 366922 443
975119 520204 525
647892 599899 509
787332 679578 504
488568 828092 509
104585 915105 525
714836 365839 509
284573 482442 449
431734 106031 449
38164 788290 509
224230 752099 509
68824 978230 525
877047 969140 507
681711 386465 509
305337 280350 389
241481 796699 509
700406 322147 509
304989 417404 449
522331 706752 509
977370 947834 458
871488 381057 525
444593 976504 525
284981 362901 441
517242 163237 470
748337 704220 504
205799 997697 525
457777 428819 400
669494 791110 504
504012 423083 444
976744 561703 525
190238 90284 383
675271 698587 442
12627 790338 509
22326 886006 525
621041 697547 509
955173 421113 525
256017 122257 443
510493 934306 525
253590 460219 449
972848 924090 507
158502 588830 470
332558 51221 443
454285 654734 509
804652 259663 509
823213 602297 509
609997 973182 525
374181 395730 436
258182 735150 509
856579 773667 525
261158 709099 509
720828 279911 509
795718 692216 504
753543 272292 509
472213 600485 470
471871 958809 525
434977 439481 400
959267 856886 507
35580 161448 383
89125 118888 354
244252 486633 449
620083 513712 452
311580 772024 509
56752 554021 470
402992 293117 441
749555 375273 509
164996 507748 449
560261 51211 470
236628 172593 443
967490 287821 525
451198 347231 449
